…
## looking at number of interests per user

``` r
spec_nums <- spec %>%
  group_by(userID) %>%
  count(userID)
names(spec_nums)[2] <- "num_interests"
spec_nums
```

    ## # A tibble: 25,749 x 2
    ## # Groups:   userID [25,749]
    ##    userID num_interests
    ##     <dbl>         <int>
    ##  1      5            20
    ##  2     10            11
    ##  3     13            21
    ##  4     14            19
    ##  5     19            18
    ##  6     25            17
    ##  7     30            10
    ##  8     33            19
    ##  9     34            13
    ## 10     38            23
    ## # … with 25,739 more rows
``` r
spec <- left_join(spec, spec_nums)
```

    ## Joining, by = c("userID", "num_interests")

``` r
spec %>%
  group_by(topic_name) %>%
  drop_na() %>%
 summarize(meanInt = mean(num_interests)) %>%
  arrange(desc(meanInt))
```

    ## # A tibble: 25 x 2
    ##    topic_name              meanInt
    ##    <chr>                     <dbl>
    ##  1 Finance                    17.2
    ##  2 Real Estate                17.1
    ##  3 Autos & Vehicles           16.7
    ##  4 Science                    16.6
    ##  5 Computers & Electronics    16.6
    ##  6 Home & Garden              16.6
    ##  7 Business & Industrial      16.5
    ##  8 Pets & Animals             16.4
    ##  9 Hobbies & Leisure          16.3
    ## 10 Jobs & Education           16.3
    ## # … with 15 more rows
…
## Short Term Interest Analysis

``` r
joined %>%
  drop_na() %>%
  group_by(topic_name) %>%
  summarise(average = mean(stiFeatures)) %>%
  arrange(desc(average))
```

    ## # A tibble: 1,385 x 2
    ##    topic_name                                                       average
    ##    <chr>                                                              <dbl>
    ##  1 /Jobs & Education/Education/Alumni & Reunions                      0.722
    ##  2 /Arts & Entertainment/Performing Arts/Circus                       0.470
    ##  3 /Jobs & Education/Education/Colleges & Universities/Fraternitie…   0.399
    ##  4 /Shopping/Apparel/Clothing Accessories/Gems & Jewelry/Rings        0.387
    ##  5 /Online Communities/Feed Aggregation & Social Bookmarking          0.370
    ##  6 /Sports/Sporting Goods/American Football Equipment                 0.368
    ##  7 /Online Communities/Blogging Resources & Services                  0.368
    ##  8 /Arts & Entertainment/Fun & Trivia/Fun Tests & Silly Surveys       0.365
    ##  9 /Computers & Electronics/Programming/Java (Programming Language)   0.303
    ## 10 /Autos & Vehicles/Vehicle Codes & Driving Laws/Vehicle Licensin…   0.302
    ## # … with 1,375 more rows
…
