Final Report
…
We also calculated the average score for the interests of entries in each category. The first graph is for all entries, while the second one is filtered for folk who have converted in the past. Interestingly, the values are smaller in the filtered dataset than in the general dataset. This can be explained by the fact that there are significantly more data points in the general dataset than the one that is filtered. The most significant change between the two visualizations is that Autos and Vehicles have moved up significantly amongst the relative averages. This is consistent with our previous visualizations that showed that the conversion rate was highest for Autos and Vehicles.

looking at number of interests per user

spec_nums <- spec %>%
  group_by(userID) %>%
  count(userID)
names(spec_nums)[2] <- "num_interests"
spec_nums

## # A tibble: 25,749 x 2
## # Groups:   userID [25,749]
##    userID num_interests
##     <dbl>         <int>
##  1      5            20
##  2     10            11
##  3     13            21
##  4     14            19
##  5     19            18
##  6     25            17
##  7     30            10
##  8     33            19
##  9     34            13
## 10     38            23
## #  with 25,739 more rows

spec <- left_join(spec, spec_nums)

## Joining, by = c("userID", "num_interests")

spec %>%
  group_by(topic_name) %>%
  drop_na() %>%
 summarize(meanInt = mean(num_interests)) %>%
  arrange(desc(meanInt))

## # A tibble: 25 x 2
##    topic_name              meanInt
##    <chr>                     <dbl>
##  1 Finance                    17.2
##  2 Real Estate                17.1
##  3 Autos & Vehicles           16.7
##  4 Science                    16.6
##  5 Computers & Electronics    16.6
##  6 Home & Garden              16.6
##  7 Business & Industrial      16.5
##  8 Pets & Animals             16.4
##  9 Hobbies & Leisure          16.3
## 10 Jobs & Education           16.3
## #  with 15 more rows
…
We decided to look a little into the effects of the number of interests individuals had on their likelihood to be converted. As you can see entries that had been converted had a higher average value for number of entries. (True in this case means they had been converted)

Short Term Interest Analysis

joined %>%
  drop_na() %>%
  group_by(topic_name) %>%
  summarise(average = mean(stiFeatures)) %>%
  arrange(desc(average))

## # A tibble: 1,385 x 2
##    topic_name                                                       average
##    <chr>                                                              <dbl>
##  1 /Jobs & Education/Education/Alumni & Reunions                      0.722
##  2 /Arts & Entertainment/Performing Arts/Circus                       0.470
##  3 /Jobs & Education/Education/Colleges & Universities/Fraternitie   0.399
##  4 /Shopping/Apparel/Clothing Accessories/Gems & Jewelry/Rings        0.387
##  5 /Online Communities/Feed Aggregation & Social Bookmarking          0.370
##  6 /Sports/Sporting Goods/American Football Equipment                 0.368
##  7 /Online Communities/Blogging Resources & Services                  0.368
##  8 /Arts & Entertainment/Fun & Trivia/Fun Tests & Silly Surveys       0.365
##  9 /Computers & Electronics/Programming/Java (Programming Language)   0.303
## 10 /Autos & Vehicles/Vehicle Codes & Driving Laws/Vehicle Licensin   0.302
## #  with 1,375 more rows
…
